{ "cocktails": [
  {
    "name": "White Russian",
    "instructions": "Pour milk into a chilled rocks glass. Add coffee liqueur and vodka; stir briefly.",
    "recipe": [
      {"ingredient": "Milk",           "measure": "6 oz",  "type": "Measured"},
      {"ingredient": "Coffee Liqueur", "measure": "1½ oz", "type": "Measured"},
      {"ingredient": "Vodka",          "measure": "1 oz",  "type": "Measured"}
    ]
  },
  {
    "name": "White Russian, Cream",
    "instructions": "Add the vodka and coffee liqueur to a rocks glass filled with ice. Top with heavy cream.",
    "recipe": [
      {"ingredient": "Vodka",          "measure": "2 oz",     "type": "Measured"},
      {"ingredient": "Coffee Liqueur", "measure": "1 oz",     "type": "Measured"},
      {"ingredient": "Heavy Cream",    "measure": "1 splash", "type": "Measured"}
    ]
  },
  {
    "name": "Blue Ribbon",
    "instructions": "Muddle the blueberries, basil, mint, and simple syrup in the bottom of a shaker. Add gin, maraschino liqueur, lime juice, and bitters; wet shake to chill. Strain into a chilled cocktail glass. Garnish with another basil leaf and a lemon twist.",
    "recipe": [
      {"ingredient": "Blueberry",          "type": "Muddled",  "measure": "¼ cup"},
      {"ingredient": "Basil leaf",         "type": "Muddled",  "measure": "2"},
      {"ingredient": "Mint leaf",          "type": "Muddled",  "measure": "4"},
      {"ingredient": "Simple syrup",       "type": "Muddled",  "measure": "1 bar spoon"},
      {"ingredient": "Gin",                "type": "Measured", "measure": "1½ oz"},
      {"ingredient": "Maraschino Liqueur", "type": "Measured", "measure": "½ oz"},
      {"ingredient": "Lime Juice",         "type": "Measured", "measure": "½ oz"},
      {"ingredient": "Bitters",            "type": "Measured", "measure": "1 drop"},
      {"ingredient": "Basil leaf",         "type": "Garnish"},
      {"ingredient": "Lemon twist",        "type": "Garnish"}
    ]
  },
  {
    "name": "Mojito",
    "instructions": "Lightly muddle the mint leaves in the simple syrup in a shaker. Add the rum and lime juice with ice and briefly shake. Strain into a highball glass filled with ice. Top with club soda. Garnish with a mint sprig and a lime wheel.",
    "recipe": [
      {"ingredient": "Mint leaf",    "type": "Muddled",  "measure": "3"},
      {"ingredient": "Simple syrup", "type": "Muddled",  "measure": "½ oz"},
      {"ingredient": "Rum",          "type": "Measured", "measure": "2 oz"},
      {"ingredient": "Lime juice",   "type": "Measured", "measure": "¾ oz"},
      {"ingredient": "Club soda",    "type": "ToFill"},
      {"ingredient": "Lime wheel",   "type": "Garnish"},
      {"ingredient": "Mint sprig",   "type": "Garnish"}
    ]
  },
  {
    "name": "example",
    "instructions": "instruct",
    "recipe": [
      {"ingredient": "t t t", "type": "ToFill"}
    ]
  }
],
"inventory": [
  "Vodka",
  "Coffee Liqueur",
  "Heavy Cream"
]
}
